<?xml version="1.0" standalone="no"?>
<!DOCTYPE svg PUBLIC "-//W3C//DTD SVG 1.1//EN" "http://www.w3.org/Graphics/SVG/1.1/DTD/svg11.dtd" >
<svg xmlns="http://www.w3.org/2000/svg">
<metadata>Generated by IcoMoon</metadata>
<defs>
<font id="icomoon" horiz-adv-x="1024">
<font-face units-per-em="1024" ascent="960" descent="-64" />
<missing-glyph horiz-adv-x="1024" />
<glyph unicode="&#x20;" horiz-adv-x="512" d="" />
<glyph unicode="&#xe900;" glyph-name="add" d="M512 957.44c-281.6 0-509.44-228.352-509.44-509.44 0-281.6 227.84-509.44 509.44-509.44s509.44 227.84 509.44 509.44c0 281.088-227.84 509.44-509.44 509.44zM692.224 416.768h-148.992v-148.992c0-17.408-13.824-31.232-31.232-31.232s-31.232 13.824-31.232 31.232v148.992h-148.992c-16.896 0-31.232 13.824-31.232 31.232s13.824 31.232 31.232 31.232h148.992v148.48c0 17.408 13.824 31.232 31.232 31.232s31.232-13.824 31.232-31.232v-148.992h148.992c17.408 0 31.232-13.824 31.232-31.232-0.512-16.384-14.336-30.72-31.232-30.72z" />
<glyph unicode="&#xe901;" glyph-name="arrowleft" d="M727.040-61.44c-34.304 0-69.12 13.312-95.232 39.424l-470.016 470.016 470.016 470.016c52.736 52.736 137.728 52.736 190.464 0s52.736-137.728 0-190.464l-279.552-279.552 279.552-279.552c52.736-52.736 52.736-137.728 0-190.464-26.112-26.112-60.416-39.424-95.232-39.424z" />
<glyph unicode="&#xe902;" glyph-name="close" d="M658.432 448l332.8 332.8c40.448 40.448 40.448 105.984 0 146.432s-105.984 40.448-146.432 0l-332.8-332.8-332.8 332.8c-40.448 40.448-105.984 40.448-146.432 0s-40.448-105.984 0-146.432l332.8-332.8-332.8-332.8c-40.448-40.448-40.448-105.984 0-146.432 20.48-19.968 46.592-30.208 73.216-30.208s52.736 10.24 73.216 30.208l332.8 332.8 332.8-332.8c19.968-20.48 46.592-30.208 73.216-30.208s52.736 10.24 73.216 30.208c40.448 40.448 40.448 105.984 0 146.432l-332.8 332.8z" />
<glyph unicode="&#xe903;" glyph-name="convert" d="M901.12 448c0 134.656-68.096 257.536-181.76 329.216-15.872 10.24-37.376 5.12-47.616-10.752s-5.12-37.376 10.752-47.616c93.696-58.88 149.504-160.256 149.504-271.36 0-163.328-121.344-299.52-279.552-317.952l62.976 62.976c13.312 13.312 13.312 35.328 0 48.64s-35.328 13.312-48.64 0l-122.368-122.368c-3.072-3.072-5.632-6.656-7.168-11.264-1.536-4.096-2.56-8.704-2.56-13.312s1.024-9.216 2.56-13.312c1.536-4.096 4.096-7.68 7.168-11.264v0l122.368-122.368c6.656-6.656 15.36-10.24 24.576-10.24 8.704 0 17.408 3.584 24.576 10.24 13.312 13.312 13.312 35.328 0 48.64l-64 64h1.024c198.144 22.016 348.16 188.416 348.16 388.096zM458.752 653.824l122.368 122.368c0 0 0 0 0 0 3.072 3.072 5.632 6.656 7.168 11.264 3.584 8.192 3.584 17.92 0 26.112-1.536 4.096-4.096 7.68-7.168 11.264 0 0 0 0 0 0l-122.368 122.368c-13.312 13.312-35.328 13.312-48.64 0s-13.312-35.328 0-48.64l64-64h-3.072c-198.144-20.48-348.16-186.88-348.16-386.56 0-134.656 68.096-257.536 181.76-329.216 5.632-3.584 11.776-5.12 18.432-5.12 11.264 0 22.528 5.632 29.184 15.872 10.24 15.872 5.12 37.376-10.752 47.616-93.696 58.88-149.504 160.256-149.504 270.848 0 164.352 122.88 301.056 282.112 317.952l-64-63.488c-13.312-13.312-13.312-35.328 0-48.64 6.656-6.656 15.36-10.24 24.064-10.24s17.92 3.584 24.576 10.24z" />
<glyph unicode="&#xe904;" glyph-name="datetime" d="M1019.904 718.848c0 131.584-107.008 238.592-238.592 238.592-90.112 0-168.448-50.176-208.896-123.392h-376.32v89.088c0 18.944-15.36 34.304-34.304 34.304s-34.304-15.36-34.304-34.304v-89.088h-20.992c-56.32 0-102.4-46.080-102.4-102.4v-690.176c0-56.32 46.080-102.4 102.4-102.4h736.256c56.32 0 102.4 46.080 102.4 102.4v504.32c46.080 43.52 74.752 104.96 74.752 173.056zM781.312 888.832c93.696 0 169.984-76.288 169.984-169.984s-76.288-169.984-169.984-169.984-169.984 76.288-169.984 169.984 76.288 169.984 169.984 169.984zM106.496 764.928h440.832c-3.072-14.848-4.608-30.208-4.608-46.080 0-40.96 10.24-79.36 28.672-112.64h-498.688v124.928c0 18.944 15.36 33.792 33.792 33.792zM876.032 40.96c0-18.432-15.36-33.792-33.792-33.792h-735.744c-18.432 0-33.792 15.36-33.792 33.792v496.128h554.496c41.472-35.328 95.232-56.832 154.112-56.832 33.792 0 65.536 7.168 94.72 19.968v-459.264zM757.248 694.784c0 0 0 0 0 0l78.336-78.848c6.656-6.656 15.36-10.24 24.576-10.24 8.704 0 17.408 3.584 24.576 10.24 13.312 13.312 13.312 35.328 0 48.64l-68.608 68.608v100.864c0 18.944-15.36 34.304-34.304 34.304s-34.304-15.36-34.304-34.304v-115.2c0-4.608 1.024-8.704 2.56-13.312 1.536-4.096 4.096-7.68 7.168-10.752zM331.776 498.176c-18.944 0-34.304-15.36-34.304-34.304v-352.256c0-18.944 15.36-34.304 34.304-34.304s34.304 15.36 34.304 34.304v352.256c0 18.944-15.36 34.304-34.304 34.304zM551.424 388.096c-55.296 0-100.352-45.056-100.352-100.352s45.056-100.352 100.352-100.352 100.352 45.056 100.352 100.352-45.056 100.352-100.352 100.352zM551.424 256c-17.408 0-31.232 14.336-31.232 31.232s14.336 31.232 31.232 31.232 31.232-14.336 31.232-31.232-13.824-31.232-31.232-31.232z" />
<glyph unicode="&#xe905;" glyph-name="dropdown" d="M512 154.624c-19.968 0-39.936 7.68-54.784 22.528l-432.128 432.128c-30.208 30.208-30.208 79.36 0 109.568s79.36 30.208 109.568 0l376.832-376.832 376.832 376.832c30.208 30.208 79.36 30.208 109.568 0s30.208-79.36 0-109.568l-431.616-431.616c-14.336-15.36-34.304-23.040-54.272-23.040z" />
<glyph unicode="&#xe906;" glyph-name="moon" d="M1021.44 273.408c-76.8-196.096-267.776-334.848-491.008-334.848-291.84 0-527.872 236.032-527.872 527.872 0 223.232 138.752 414.208 334.848 491.008-23.552-59.904-36.352-124.928-36.352-193.024 0-291.328 236.032-527.872 527.872-527.872 67.584 0 132.608 12.8 192.512 36.864z" />
<glyph unicode="&#xe907;" glyph-name="mosque" d="M848.896-4.096h144.384c15.36 0 28.16 12.288 28.16 28.16v370.176c0 15.36-12.288 28.16-28.16 28.16h-68.096v74.752c0 15.36-12.288 28.16-28.16 28.16h-47.104v50.176c0 15.36-12.288 28.16-28.16 28.16-15.36 0-28.16-12.288-28.16-28.16v-50.176h-79.872c0 1.024 0 2.048 0 2.56v106.496c0 96.256-80.384 184.32-174.592 199.68v38.4c0 15.36-12.288 28.16-28.16 28.16-15.36 0-28.16-12.288-28.16-28.16v-38.4c-94.72-14.848-174.592-103.424-174.592-199.68v-106.496c0-1.024 0-2.048 0-2.56h-78.336v50.176c0 15.36-12.288 28.16-28.16 28.16-15.36 0-28.16-12.288-28.16-28.16v-50.176h-47.104c-15.36 0-28.16-12.288-28.16-28.16v-75.264h-67.584c-15.36 0-28.16-12.288-28.16-28.16v-370.176c0-15.36 12.288-28.16 28.16-28.16h144.896c15.36 0 28.16 12.288 28.16 28.16v138.752h46.080v-138.752c0-15.36 12.288-28.16 28.16-28.16h150.528c7.168 0 14.336 3.072 19.968 8.192 5.12 5.12 8.192 12.288 8.192 19.968v160.256c0 31.232 25.088 56.32 56.32 56.32s56.32-25.088 56.32-56.32c0-60.928 0-153.088 0-159.232 0-7.168 2.56-14.336 7.68-19.968s12.8-8.704 20.48-8.704h150.528c15.36 0 28.16 12.288 28.16 28.16v138.752h46.080v-138.752c-1.536-15.36 11.264-28.16 26.624-28.16v0zM365.056 527.872v106.496c0 74.752 71.168 145.92 146.944 145.92 75.264 0 146.944-70.656 146.944-145.92v-106.496c0-1.024 0-2.048 0-2.56h-293.888c0 1.024 0 1.536 0 2.56v0zM154.624 469.504h714.752v-47.616h-714.752v47.616zM746.496 218.624c-15.36 0-28.16-12.288-28.16-28.16v-138.752h-94.72c0 22.528 0 61.952 0 132.096 0 61.952-50.176 112.128-112.128 112.128s-112.128-50.176-112.128-112.128v-132.096h-94.208v138.752c0 15.36-12.288 28.16-28.16 28.16h-101.888c-15.36 0-28.16-12.288-28.16-28.16v-138.752h-88.576v314.368h907.264v-314.368h-89.088v138.752c0 15.36-12.288 28.16-28.16 28.16h-101.888z" />
<glyph unicode="&#xe908;" glyph-name="next" d="M512-61.44c281.088 0 509.44 228.352 509.44 509.44s-228.352 509.44-509.44 509.44-509.44-228.352-509.44-509.44 228.352-509.44 509.44-509.44zM512 927.232c264.192 0 479.232-215.040 479.232-479.232s-215.040-479.232-479.232-479.232-479.232 215.040-479.232 479.232 215.040 479.232 479.232 479.232zM454.144 256c6.144-6.144 15.36-6.144 21.504 0l181.248 181.248c6.144 6.144 6.144 15.36 0 21.504l-181.248 181.248c-3.072 3.072-6.656 4.608-10.752 4.608s-7.68-1.536-10.752-4.608c-6.144-6.144-6.144-15.36 0-21.504l170.496-170.496-170.496-170.496c-5.632-6.144-5.632-15.36 0-21.504z" />
<glyph unicode="&#xe909;" glyph-name="previous" d="M512 957.44c-281.088 0-509.44-228.352-509.44-509.44s228.352-509.44 509.44-509.44 509.44 228.352 509.44 509.44-228.352 509.44-509.44 509.44zM512-31.232c-264.192 0-479.232 215.040-479.232 479.232s215.040 479.232 479.232 479.232 479.232-215.040 479.232-479.232-215.040-479.232-479.232-479.232zM569.856 640c-6.144 6.144-15.36 6.144-21.504 0l-181.248-181.248c-6.144-6.144-6.144-15.36 0-21.504l181.248-181.248c3.072-3.072 6.656-4.608 10.752-4.608s7.68 1.536 10.752 4.608c6.144 6.144 6.144 15.36 0 21.504l-171.008 170.496 170.496 170.496c6.144 6.144 6.144 15.36 0.512 21.504z" />
<glyph unicode="&#xe90a;" glyph-name="sandclock" d="M863.232 8.704h-59.904v107.52c0 108.544-59.392 208.384-167.936 281.088-13.312 9.216-22.016 28.672-22.016 50.688s8.192 41.984 22.016 51.2c108.032 72.704 167.936 172.544 167.936 281.088v107.52h59.904c19.456 0 34.816 15.872 34.816 34.816 0 19.456-15.872 34.816-34.816 34.816h-702.464c-19.456 0-34.816-15.872-34.816-34.816 0-19.456 15.872-34.816 34.816-34.816h59.904v-107.52c0-108.544 59.392-208.384 167.936-281.088 13.312-9.216 22.016-28.672 22.016-51.2s-8.192-41.984-22.016-51.2c-108.032-72.704-167.936-172.544-167.936-281.088v-107.52h-59.904c-19.456 0-34.816-15.872-34.816-34.816 0-19.456 15.872-34.816 34.816-34.816h702.976c19.456 0 34.816 15.872 34.816 34.816 0 19.456-15.872 35.328-35.328 35.328v0zM290.304 115.712c0 114.176 86.016 188.928 136.704 223.232 33.28 22.016 53.248 62.976 53.248 109.056s-19.968 87.040-52.736 109.056c-51.2 34.304-136.704 109.056-136.704 223.232v107.52h442.88v-107.52c0-114.176-86.016-188.928-136.704-223.232-33.28-22.016-53.248-62.976-53.248-109.056s19.968-87.040 52.736-109.056c51.2-34.304 136.704-109.056 136.704-223.232v-107.52h-442.88v107.52z" />
<glyph unicode="&#xe90b;" glyph-name="sun" d="M891.392 448c0-209.532-169.86-379.392-379.392-379.392s-379.392 169.86-379.392 379.392c0 209.532 169.86 379.392 379.392 379.392s379.392-169.86 379.392-379.392zM827.392 744.96c-4.608 0-9.216 2.048-12.8 5.632-7.168 7.168-7.168 18.944 0 26.112l33.28 33.28c7.168 7.168 18.944 7.168 26.112 0s7.168-18.944 0-26.112l-33.28-33.28c-4.096-4.096-8.704-5.632-13.312-5.632zM163.328 80.896c-4.608 0-9.216 2.048-13.312 5.632-7.168 7.168-7.168 18.944 0 26.112l33.28 32.768c7.168 7.168 18.944 7.168 26.112 0s7.168-18.944 0-26.112l-33.28-32.768c-3.072-3.584-7.68-5.632-12.8-5.632zM700.416 834.048c-2.56 0-5.12 0.512-7.68 1.536-9.216 4.096-13.312 15.36-8.704 24.576l19.968 42.496c4.096 9.216 15.36 13.312 24.576 8.704 9.216-4.096 13.312-15.36 8.704-24.576l-19.968-42.496c-3.072-6.656-9.728-10.24-16.896-10.24zM303.616-16.896c-2.56 0-5.12 0.512-7.68 1.536-9.216 4.096-13.312 15.36-8.704 24.576l19.968 42.496c4.096 9.216 15.36 13.312 24.576 8.704 9.216-4.096 13.312-15.36 8.704-24.576l-19.968-42.496c-3.072-6.656-9.728-10.24-16.896-10.24zM550.912 873.984c-0.512 0-1.024 0-1.536 0-10.24 1.024-17.408 9.728-16.896 19.968l4.096 46.592c1.024 10.24 10.24 17.92 19.968 16.896 10.24-1.024 17.408-9.728 16.896-19.968l-4.096-46.592c-1.024-9.728-8.704-16.896-18.432-16.896zM468.992-61.44c-0.512 0-1.024 0-1.536 0-10.24 1.024-17.408 9.728-16.896 19.968l4.096 46.592c1.024 10.24 9.728 17.92 19.968 16.896s17.408-9.728 16.896-19.968l-4.096-46.592c-1.024-9.728-8.704-16.896-18.432-16.896zM396.288 860.672c-8.192 0-15.36 5.632-17.92 13.824l-11.776 44.544c-2.56 9.728 3.072 19.968 12.8 22.528s19.968-3.072 22.528-12.8l12.288-45.056c2.56-9.728-3.072-19.968-12.8-22.528-1.536-0.512-3.072-0.512-5.12-0.512zM639.488-46.592c-8.192 0-15.36 5.632-17.92 13.824l-12.288 45.056c-2.56 9.728 3.072 19.968 12.8 22.528s19.968-3.072 22.528-12.8l12.288-45.056c2.56-9.728-3.072-19.968-12.8-22.528-1.536-1.024-3.072-1.024-4.608-1.024zM256 795.136c-5.632 0-11.776 2.56-15.36 7.68l-26.624 38.4c-5.632 8.192-3.584 19.968 4.608 25.6s19.968 3.584 25.6-4.608l26.624-38.4c5.632-8.192 3.584-19.968-4.608-25.6-2.56-2.048-6.144-3.072-10.24-3.072zM794.624 25.6c-5.632 0-11.776 2.56-15.36 7.68l-26.624 38.4c-5.632 8.192-3.584 19.968 4.608 25.6s19.968 3.584 25.6-4.608l26.624-38.4c5.632-8.192 3.584-19.968-4.608-25.6-3.072-1.536-6.656-3.072-10.24-3.072zM146.432 685.568c-3.584 0-7.168 1.024-10.752 3.584l-38.4 26.624c-8.192 5.632-10.24 17.408-4.608 25.6s17.408 10.24 25.6 4.608l38.4-26.624c8.192-5.632 10.24-17.408 4.608-25.6-3.072-5.632-8.704-8.192-14.848-8.192zM915.456 146.944c-3.584 0-7.168 1.024-10.752 3.584l-38.4 26.624c-8.192 5.632-10.24 17.408-4.608 25.6s17.408 10.24 25.6 4.608l38.4-26.624c8.192-5.632 10.24-17.408 4.608-25.6-3.072-5.632-8.704-8.192-14.848-8.192zM80.896 544.768c-1.536 0-3.072 0-4.608 0.512l-45.056 12.288c-9.728 2.56-15.872 12.8-12.8 22.528 2.56 10.24 12.288 15.872 22.528 13.312l45.056-12.288c9.728-2.56 15.872-12.8 12.8-22.528-2.048-8.192-9.728-13.824-17.92-13.824zM988.16 302.080c-1.536 0-3.072 0-4.608 0.512l-45.056 12.288c-9.728 2.56-15.872 12.8-12.8 22.528 2.56 9.728 12.8 15.872 22.528 12.8l45.056-12.288c9.728-2.56 15.872-12.8 12.8-22.528-2.56-8.192-9.728-13.312-17.92-13.312zM20.992 386.56c-9.216 0-17.408 7.168-18.432 16.896-1.024 10.24 6.656 18.944 16.896 19.968l46.592 4.096c10.24 1.024 18.944-6.656 19.968-16.896s-6.656-18.944-16.896-19.968l-46.592-4.096c-0.512 0-1.024 0-1.536 0zM956.416 468.48c-9.216 0-17.408 7.168-18.432 16.896-1.024 10.24 6.656 18.944 16.896 19.968l46.592 4.096c10.24 1.024 18.944-6.656 19.968-16.896s-6.656-18.944-16.896-19.968l-46.592-4.096c-0.512 0-1.024 0-1.536 0zM65.536 221.184c-7.168 0-13.824 4.096-16.896 10.752-4.096 9.216-0.512 19.968 8.704 24.576l42.496 19.968c9.216 4.096 19.968 0.512 24.576-8.704 4.096-9.216 0.512-19.968-8.704-24.576l-42.496-19.968c-2.56-1.536-5.12-2.048-7.68-2.048zM916.48 617.984c-7.168 0-13.824 4.096-16.896 10.752-4.096 9.216-0.512 19.968 8.704 24.576l42.496 19.968c9.216 4.096 19.968 0.512 24.576-8.704 4.096-9.216 0.512-19.968-8.704-24.576l-42.496-19.968c-2.56-1.536-5.12-2.048-7.68-2.048z" />
<glyph unicode="&#xe90c;" glyph-name="taatil" d="M1003.52 676.352c-14.848 17.92-36.864 28.16-59.904 28.16h-863.232c-23.040 0-45.568-10.24-59.904-28.16-14.848-17.92-20.992-41.472-16.384-64.512 46.080-243.712 260.096-420.864 507.904-420.864 248.32 0 461.824 177.152 507.904 420.864 4.608 23.040-1.536 46.592-16.384 64.512z" />
<glyph unicode="&#xe90d;" glyph-name="tick" d="M1000.96 819.712c-27.136 27.136-71.68 27.136-98.816 0l-595.456-595.456-184.832 184.832c-27.136 27.136-71.68 27.136-98.816 0s-27.136-71.68 0-98.816l233.984-233.984c13.312-13.312 30.72-20.48 49.664-20.48s36.352 7.168 49.664 20.48l645.12 645.12c26.624 27.136 26.624 71.168-0.512 98.304z" />
</font></defs></svg>